…
historical data


```r
x <- cch_pkgs_history(x = "geojsonio")
x$data$history
#> # A tibble: 30 x 4
#>    date_updated summary$any   $ok $note $warn $error $fail checks
#>    <chr>        <lgl>       <int> <int> <int>  <int> <int> <list>
#>  1 2020-05-19T… TRUE           11     1     0      0     0 <df[,…
#>  2 2020-05-18T… TRUE           11     1     0      0     0 <df[,…
#>  3 2020-05-17T… TRUE           11     1     0      0     0 <df[,…
#>  4 2020-05-16T… TRUE           10     1     1      0     0 <df[,…
#>  5 2020-05-15T… TRUE           11     1     0      0     0 <df[,…
#>  6 2020-05-14T… TRUE           11     1     0      0     0 <df[,…
#>  7 2020-05-13T… TRUE           11     1     0      0     0 <df[,…
#>  8 2020-05-12T… TRUE           11     1     0      0     0 <df[,…
#>  9 2020-05-11T… TRUE           11     1     0      0     0 <df[,…
#> 10 2020-05-10T… TRUE           11     1     0      0     0 <df[,…
#> # … with 20 more rows, and 6 more variables: check_details$version <chr>,
#> #   $check <chr>, $result <chr>, $output <chr>, $flavors <list>,
#> #   $additional_issues <list>
```

search historical data


```r
x <- cch_pkgs_search(q = "memory")
x$data
#> # A tibble: 30 x 5
#>    package date_updated summary$any   $ok $note $warn $error $fail checks
#>    <chr>   <chr>        <lgl>       <int> <int> <int>  <int> <int> <list>
#>  1 tidyft  2020-04-20T… TRUE            9     0     2      0     0 <df[,…
#>  2 tidyft  2020-04-21T… TRUE           10     0     2      0     0 <df[,…
#>  3 tidyft  2020-04-22T… TRUE           10     0     2      0     0 <df[,…
#>  4 tidyft  2020-04-23T… TRUE           10     0     2      0     0 <df[,…
#>  5 tidyft  2020-04-24T… TRUE           10     0     2      0     0 <df[,…
#>  6 tidyft  2020-04-25T… TRUE           10     0     2      0     0 <df[,…
#>  7 tidyft  2020-04-26T… TRUE           10     0     2      0     0 <df[,…
#>  8 tidyft  2020-04-27T… TRUE           10     0     2      0     0 <df[,…
#>  9 tidyft  2020-04-28T… TRUE           10     0     2      0     0 <df[,…
#> 10 tidyft  2020-04-29T… TRUE           10     0     2      0     0 <df[,…
#> # … with 20 more rows, and 6 more variables: check_details$version <chr>,
#> #   $check <chr>, $result <chr>, $output <chr>, $flavors <list>,
#> #   $additional_issues <list>
```
…
